{
  "formatVersion": 1,
  "database": {
    "version": 2,
    "identityHash": "5d09404621803969a4703594cb556cb0",
    "entities": [
      {
        "tableName": "School",
        "createSql": "CREATE TABLE IF NOT EXISTS `${TABLE_NAME}` (`dbn` TEXT NOT NULL, `name` TEXT NOT NULL, `overviewParagraph` TEXT, `academicOpportunities1` TEXT, `academicOpportunities2` TEXT, `neighborhood` TEXT, `phoneNumber` TEXT, `faxNumber` TEXT, `schoolEmail` TEXT, `website` TEXT, `grades2018` TEXT, `finalGrades` TEXT, `totalStudents` INTEGER, `attendanceRate` REAL, `directions1` TEXT, `primaryAddressLine1` TEXT, `city` TEXT, `zip` TEXT, `stateCode` TEXT, `latitude` TEXT, `longitude` TEXT, `borough` TEXT, `campusName` TEXT, `startTime` TEXT, `endTime` TEXT, `graduationRate` REAL, `collegeCareerRate` REAL, PRIMARY KEY(`dbn`))",
        "fields": [
          {
            "fieldPath": "dbn",
            "columnName": "dbn",
            "affinity": "TEXT",
            "notNull": true
          },
          {
            "fieldPath": "name",
            "columnName": "name",
            "affinity": "TEXT",
            "notNull": true
          },
          {
            "fieldPath": "overviewParagraph",
            "columnName": "overviewParagraph",
            "affinity": "TEXT",
            "notNull": false
          },
          {
            "fieldPath": "academicOpportunities1",
            "columnName": "academicOpportunities1",
            "affinity": "TEXT",
            "notNull": false
          },
          {
            "fieldPath": "academicOpportunities2",
            "columnName": "academicOpportunities2",
            "affinity": "TEXT",
            "notNull": false
          },
          {
            "fieldPath": "neighborhood",
            "columnName": "neighborhood",
            "affinity": "TEXT",
            "notNull": false
          },
          {
            "fieldPath": "phoneNumber",
            "columnName": "phoneNumber",
            "affinity": "TEXT",
            "notNull": false
          },
          {
            "fieldPath": "faxNumber",
            "columnName": "faxNumber",
            "affinity": "TEXT",
            "notNull": false
          },
          {
            "fieldPath": "schoolEmail",
            "columnName": "schoolEmail",
            "affinity": "TEXT",
            "notNull": false
          },
          {
            "fieldPath": "website",
            "columnName": "website",
            "affinity": "TEXT",
            "notNull": false
          },
          {
            "fieldPath": "grades2018",
            "columnName": "grades2018",
            "affinity": "TEXT",
            "notNull": false
          },
          {
            "fieldPath": "finalGrades",
            "columnName": "finalGrades",
            "affinity": "TEXT",
            "notNull": false
          },
          {
            "fieldPath": "totalStudents",
            "columnName": "totalStudents",
            "affinity": "INTEGER",
            "notNull": false
          },
          {
            "fieldPath": "attendanceRate",
            "columnName": "attendanceRate",
            "affinity": "REAL",
            "notNull": false
          },
          {
            "fieldPath": "directions1",
            "columnName": "directions1",
            "affinity": "TEXT",
            "notNull": false
          },
          {
            "fieldPath": "primaryAddressLine1",
            "columnName": "primaryAddressLine1",
            "affinity": "TEXT",
            "notNull": false
          },
          {
            "fieldPath": "city",
            "columnName": "city",
            "affinity": "TEXT",
            "notNull": false
          },
          {
            "fieldPath": "zip",
            "columnName": "zip",
            "affinity": "TEXT",
            "notNull": false
          },
          {
            "fieldPath": "stateCode",
            "columnName": "stateCode",
            "affinity": "TEXT",
            "notNull": false
          },
          {
            "fieldPath": "latitude",
            "columnName": "latitude",
            "affinity": "TEXT",
            "notNull": false
          },
          {
            "fieldPath": "longitude",
            "columnName": "longitude",
            "affinity": "TEXT",
            "notNull": false
          },
          {
            "fieldPath": "borough",
            "columnName": "borough",
            "affinity": "TEXT",
            "notNull": false
          },
          {
            "fieldPath": "campusName",
            "columnName": "campusName",
            "affinity": "TEXT",
            "notNull": false
          },
          {
            "fieldPath": "startTime",
            "columnName": "startTime",
            "affinity": "TEXT",
            "notNull": false
          },
          {
            "fieldPath": "endTime",
            "columnName": "endTime",
            "affinity": "TEXT",
            "notNull": false
          },
          {
            "fieldPath": "graduationRate",
            "columnName": "graduationRate",
            "affinity": "REAL",
            "notNull": false
          },
          {
            "fieldPath": "collegeCareerRate",
            "columnName": "collegeCareerRate",
            "affinity": "REAL",
            "notNull": false
          }
        ],
        "primaryKey": {
          "autoGenerate": false,
          "columnNames": [
            "dbn"
          ]
        },
        "indices": [],
        "foreignKeys": []
      },
      {
        "tableName": "SatScore",
        "createSql": "CREATE TABLE IF NOT EXISTS `${TABLE_NAME}` (`schoolDbn` TEXT NOT NULL, `schoolName` TEXT NOT NULL, `numTestTakers` TEXT, `readingAverage` TEXT, `mathAverage` TEXT, `writingAverage` TEXT, PRIMARY KEY(`schoolDbn`))",
        "fields": [
          {
            "fieldPath": "schoolDbn",
            "columnName": "schoolDbn",
            "affinity": "TEXT",
            "notNull": true
          },
          {
            "fieldPath": "schoolName",
            "columnName": "schoolName",
            "affinity": "TEXT",
            "notNull": true
          },
          {
            "fieldPath": "numTestTakers",
            "columnName": "numTestTakers",
            "affinity": "TEXT",
            "notNull": false
          },
          {
            "fieldPath": "readingAverage",
            "columnName": "readingAverage",
            "affinity": "TEXT",
            "notNull": false
          },
          {
            "fieldPath": "mathAverage",
            "columnName": "mathAverage",
            "affinity": "TEXT",
            "notNull": false
          },
          {
            "fieldPath": "writingAverage",
            "columnName": "writingAverage",
            "affinity": "TEXT",
            "notNull": false
          }
        ],
        "primaryKey": {
          "autoGenerate": false,
          "columnNames": [
            "schoolDbn"
          ]
        },
        "indices": [],
        "foreignKeys": []
      }
    ],
    "views": [],
    "setupQueries": [
      "CREATE TABLE IF NOT EXISTS room_master_table (id INTEGER PRIMARY KEY,identity_hash TEXT)",
      "INSERT OR REPLACE INTO room_master_table (id,identity_hash) VALUES(42, '5d09404621803969a4703594cb556cb0')"
    ]
  }
}